STA5092Z EDA Lecture 5-6
…
error: Show errors in output (TRUE) or stop rendering (FALSE).

Libraries

pacman::p_load() loads packages and installs missing ones. This is convenient for now, but in production/reproducible work you might want a fixed renv environment instead. See: renv

Ames Dataset

This problem presents a data set describing the sale of individual residential property in Ames, Iowa from 2006 to 2010. The data set contains 1460 observations and a large number of explanatory variables (nominal, ordinal, discrete, and continuous) involved in assessing home values. With 79 explanatory variables describing (almost) every aspect of residential homes in Ames, Iowa, this Kaggle competition challenges you to predict the final price of each home. The full dataset as provided on the Kaggle website has been provided on Vula in the file ames.csv or in the following link:

Kaggle AMES competition

1) Load the data + quick missingness summary (variable-level)

# A tibble: 81 × 3
   variable     n_miss pct_miss
   <chr>         <int>    <num>
 1 PoolQC         1453    99.5 
 2 MiscFeature    1406    96.3 
 3 Alley          1369    93.8 
 4 Fence          1179    80.8 
 5 FireplaceQu     690    47.3 
 6 LotFrontage     259    17.7 
 7 GarageType       81     5.55
 8 GarageYrBlt      81     5.55
 9 GarageFinish     81     5.55
10 GarageQual       81     5.55
# ℹ 71 more rows
…
10) Missingness by group + missingness by factor

If missingness differs across groups, analyses can become biased.

# A tibble: 160 × 4
# Groups:   Street [2]
   Street variable     n_miss pct_miss
   <chr>  <chr>         <int>    <num>
 1 Pave   PoolQC         1447    99.5 
 2 Pave   MiscFeature    1403    96.5 
 3 Pave   Alley          1363    93.7 
 4 Pave   Fence          1173    80.7 
 5 Pave   FireplaceQu     686    47.2 
 6 Pave   LotFrontage     258    17.7 
 7 Pave   GarageType       80     5.50
 8 Pave   GarageYrBlt      80     5.50
 9 Pave   GarageFinish     80     5.50
10 Pave   GarageQual       80     5.50
# ℹ 150 more rows
…
