STA5092Z EDA Lecture 5-6
…
ames <- read.csv(here::here("Datasets", "Ames", "ames.csv"))
library(naniar)

Warning: package 'naniar' was built under R version 4.4.3

Attaching package: 'naniar'

The following object is masked from 'package:tsibble':

    pedestrian

ames |>
  miss_var_summary()

# A tibble: 81 × 3
   variable     n_miss pct_miss
   <chr>         <int>    <num>
 1 PoolQC         1453    99.5 
 2 MiscFeature    1406    96.3 
 3 Alley          1369    93.8 
 4 Fence          1179    80.8 
 5 FireplaceQu     690    47.3 
 6 LotFrontage     259    17.7 
 7 GarageType       81     5.55
 8 GarageYrBlt      81     5.55
 9 GarageFinish     81     5.55
10 GarageQual       81     5.55
# ℹ 71 more rows
…
10) Missingness by group + missingness by factor

If missingness differs across groups, analyses can become biased.

ames |>
  group_by(Street) |>
  miss_var_summary()

# A tibble: 160 × 4
# Groups:   Street [2]
   Street variable     n_miss pct_miss
   <chr>  <chr>         <int>    <num>
 1 Pave   PoolQC         1447    99.5 
 2 Pave   MiscFeature    1403    96.5 
 3 Pave   Alley          1363    93.7 
 4 Pave   Fence          1173    80.7 
 5 Pave   FireplaceQu     686    47.2 
 6 Pave   LotFrontage     258    17.7 
 7 Pave   GarageType       80     5.50
 8 Pave   GarageYrBlt      80     5.50
 9 Pave   GarageFinish     80     5.50
10 Pave   GarageQual       80     5.50
# ℹ 150 more rows
…
