STA5092Z EDA Lecture 5-6 - Happiness Data
…
Family of join operations

Sometimes you may collect data from different environments and may need to merge the datasets according a particular variable.

One of the main advantages of dplyr is that you can join data frames easily. There are several functions one can use to merge, or join datasets. But the dplyr is the easiest and fastest.

#install.packages("nycflights13")
library(nycflights13)

Warning: package 'nycflights13' was built under R version 4.4.3

flights 

# A tibble: 336,776 × 19
    year month   day dep_time sched_dep_time dep_delay arr_time sched_arr_time
   <int> <int> <int>    <int>          <int>     <dbl>    <int>          <int>
 1  2013     1     1      517            515         2      830            819
 2  2013     1     1      533            529         4      850            830
 3  2013     1     1      542            540         2      923            850
 4  2013     1     1      544            545        -1     1004           1022
 5  2013     1     1      554            600        -6      812            837
 6  2013     1     1      554            558        -4      740            728
 7  2013     1     1      555            600        -5      913            854
 8  2013     1     1      557            600        -3      709            723
 9  2013     1     1      557            600        -3      838            846
10  2013     1     1      558            600        -2      753            745
# ℹ 336,766 more rows
# ℹ 11 more variables: arr_delay <dbl>, carrier <chr>, flight <int>,
#   tailnum <chr>, origin <chr>, dest <chr>, air_time <dbl>, distance <dbl>,
#   hour <dbl>, minute <dbl>, time_hour <dttm>

planes

# A tibble: 3,322 × 9
   tailnum  year type              manufacturer model engines seats speed engine
   <chr>   <int> <chr>             <chr>        <chr>   <int> <int> <int> <chr> 
 1 N10156   2004 Fixed wing multi… EMBRAER      EMB-…       2    55    NA Turbo…
 2 N102UW   1998 Fixed wing multi… AIRBUS INDU… A320…       2   182    NA Turbo…
 3 N103US   1999 Fixed wing multi… AIRBUS INDU… A320…       2   182    NA Turbo…
 4 N104UW   1999 Fixed wing multi… AIRBUS INDU… A320…       2   182    NA Turbo…
 5 N10575   2002 Fixed wing multi… EMBRAER      EMB-…       2    55    NA Turbo…
 6 N105UW   1999 Fixed wing multi… AIRBUS INDU… A320…       2   182    NA Turbo…
 7 N107US   1999 Fixed wing multi… AIRBUS INDU… A320…       2   182    NA Turbo…
 8 N108UW   1999 Fixed wing multi… AIRBUS INDU… A320…       2   182    NA Turbo…
 9 N109UW   1999 Fixed wing multi… AIRBUS INDU… A320…       2   182    NA Turbo…
10 N110UW   1999 Fixed wing multi… AIRBUS INDU… A320…       2   182    NA Turbo…
# ℹ 3,312 more rows

inner_join

This join will take only the matching values based on the specified columns.

inner_join(flights, planes) |>
  select(year, month, day, dep_time, arr_time, carrier, flight, tailnum, type, model)

Joining with `by = join_by(year, tailnum)`

# A tibble: 4,630 × 10
    year month   day dep_time arr_time carrier flight tailnum type         model
   <int> <int> <int>    <int>    <int> <chr>    <int> <chr>   <chr>        <chr>
 1  2013     1    18     1846     2156 UA        1292 N37465  Fixed wing … 737-…
 2  2013    10     1      647      744 B6         318 N355JB  Fixed wing … ERJ …
 3  2013    10     1      652      921 UA        1439 N37471  Fixed wing … 737-…
 4  2013    10     1      755      954 9E        3538 N292PQ  Fixed wing … CL-6…
 5  2013    10     1      813     1050 B6         281 N354JB  Fixed wing … ERJ …
 6  2013    10     1      925     1025 B6         116 N373JB  Fixed wing … ERJ …
 7  2013    10     1     1113     1215 B6        1307 N374JB  Fixed wing … ERJ …
 8  2013    10     1     1426     1535 B6         286 N368JB  Fixed wing … ERJ …
 9  2013    10     1     1446     1635 US        1995 N156UW  Fixed wing … A321…
10  2013    10     1     1454     1751 B6         575 N374JB  Fixed wing … ERJ …
# ℹ 4,620 more rows

left_join

What do we mean by left join?

This join will take all of the values from the table we specify as left (e.g., the first one) and match them to records from the table on the right (e.g. the second one). If there isn’t a match in the second table, then it will return NULL for the row in question.

left_join(flights, planes) |>
  select(year, month, day, dep_time, arr_time, carrier, flight, tailnum, type, model)

Joining with `by = join_by(year, tailnum)`

# A tibble: 336,776 × 10
    year month   day dep_time arr_time carrier flight tailnum type  model
   <int> <int> <int>    <int>    <int> <chr>    <int> <chr>   <chr> <chr>
 1  2013     1     1      517      830 UA        1545 N14228  <NA>  <NA> 
 2  2013     1     1      533      850 UA        1714 N24211  <NA>  <NA> 
 3  2013     1     1      542      923 AA        1141 N619AA  <NA>  <NA> 
 4  2013     1     1      544     1004 B6         725 N804JB  <NA>  <NA> 
 5  2013     1     1      554      812 DL         461 N668DN  <NA>  <NA> 
 6  2013     1     1      554      740 UA        1696 N39463  <NA>  <NA> 
 7  2013     1     1      555      913 B6         507 N516JB  <NA>  <NA> 
 8  2013     1     1      557      709 EV        5708 N829AS  <NA>  <NA> 
 9  2013     1     1      557      838 B6          79 N593JB  <NA>  <NA> 
10  2013     1     1      558      753 AA         301 N3ALAA  <NA>  <NA> 
# ℹ 336,766 more rows

If you do not provide the columns to be joined, dplyr will joing the datasets based on the columns that have the same name. At the end of the operator, it will tell us which columns are used to join.

Joining, by = c("year", "tailnum")

Now, what if the joining columns don’t have same name, or the meaning of the same named columns is different, then you need to specify the joining columns with the by = argument:

left_join(flights, planes, by = c("tailnum", "year")) |>
  select(year, month, day, dep_time, arr_time, carrier, flight, tailnum, type, model)

# A tibble: 336,776 × 10
    year month   day dep_time arr_time carrier flight tailnum type  model
   <int> <int> <int>    <int>    <int> <chr>    <int> <chr>   <chr> <chr>
 1  2013     1     1      517      830 UA        1545 N14228  <NA>  <NA> 
 2  2013     1     1      533      850 UA        1714 N24211  <NA>  <NA> 
 3  2013     1     1      542      923 AA        1141 N619AA  <NA>  <NA> 
 4  2013     1     1      544     1004 B6         725 N804JB  <NA>  <NA> 
 5  2013     1     1      554      812 DL         461 N668DN  <NA>  <NA> 
 6  2013     1     1      554      740 UA        1696 N39463  <NA>  <NA> 
 7  2013     1     1      555      913 B6         507 N516JB  <NA>  <NA> 
 8  2013     1     1      557      709 EV        5708 N829AS  <NA>  <NA> 
 9  2013     1     1      557      838 B6          79 N593JB  <NA>  <NA> 
10  2013     1     1      558      753 AA         301 N3ALAA  <NA>  <NA> 
# ℹ 336,766 more rows
…
